<svg xmlns="http://www.w3.org/2000/svg" width="19" height="29" viewBox="0 0 19 29">
  <path fill="#8CC63E" fill-rule="evenodd" d="M14.1421356,6.99927848 L14.1421356,4.14213562 L-5.85786438,4.14213562 L-5.85786438,9.85642134 L8.42784991,9.85642134 L8.42784991,24.1421356 L14.1421356,24.1421356 L14.1421356,6.99927848 Z" transform="rotate(45 4.142 14.142)"/>
</svg>
